prevWaveForms/passWordResetIssue.vcd
$date
	Fri Mar  7 15:49:05 2025
$end
$version
	Icarus Verilog
$end
$timescale
	1s
$end
$scope module unlocker_tb $end
$var wire 1 ! resetCount $end
$var wire 1 " lock $end
$var reg 1 # btn1 $end
$var reg 1 $ btn2 $end
$var reg 1 % btn3 $end
$var reg 1 & btn4 $end
$var reg 1 ' btn5 $end
$var reg 1 ( clk $end
$var reg 4 ) inputCount [3:0] $end
$var reg 1 * locker $end
$var reg 5 + passwordInput0 [4:0] $end
$var reg 5 , passwordInput1 [4:0] $end
$var reg 5 - passwordInput2 [4:0] $end
$var reg 5 . passwordInput3 [4:0] $end
$var reg 1 / switch1 $end
$var reg 5 0 userNameInput0 [4:0] $end
$var reg 5 1 userNameInput1 [4:0] $end
$var reg 5 2 userNameInput2 [4:0] $end
$var reg 5 3 userNameInput3 [4:0] $end
$scope module my_unlock $end
$var wire 1 # btn1 $end
$var wire 1 $ btn2 $end
$var wire 1 % btn3 $end
$var wire 1 & btn4 $end
$var wire 1 ' btn5 $end
$var wire 1 ( clk $end
$var wire 4 4 inputCount [3:0] $end
$var wire 1 * locker $end
$var wire 5 5 passwordInput0 [4:0] $end
$var wire 5 6 passwordInput1 [4:0] $end
$var wire 5 7 passwordInput2 [4:0] $end
$var wire 5 8 passwordInput3 [4:0] $end
$var wire 1 / switch1 $end
$var wire 5 9 userNameInput0 [4:0] $end
$var wire 5 : userNameInput1 [4:0] $end
$var wire 5 ; userNameInput2 [4:0] $end
$var wire 5 < userNameInput3 [4:0] $end
$var reg 1 " lock $end
$var reg 1 ! resetCount $end
$var reg 20 = tempPassword [19:0] $end
$var reg 20 > tempUser [19:0] $end
$var integer 32 ? currentUser [31:0] $end
$var integer 32 @ i [31:0] $end
$var integer 32 A userCount [31:0] $end
$upscope $end
$upscope $end
$enddefinitions $end
$comment Show the parameter values. $end
$dumpall
$end
#0
$dumpvars
b1 A
bx @
b0 ?
bx >
bx =
bx <
bx ;
bx :
bx 9
bx 8
bx 7
bx 6
bx 5
bx 4
bx 3
bx 2
bx 1
bx 0
x/
bx .
bx -
bx ,
bx +
x*
bx )
0(
x'
x&
x%
x$
x#
1"
x!
$end
#1
1(
#2
0(
#3
1(
#4
0(
#5
1(
#6
0(
#7
1(
#8
0(
#9
1(
#10
0(
b1 )
b1 4
b0 0
b0 9
#11
1(
b10 )
b10 4
b0 1
b0 :
#12
0(
b11 )
b11 4
b1 2
b1 ;
#13
1(
b100 )
b100 4
b1 3
b1 <
#14
0(
b101 )
b101 4
b0 +
b0 5
#15
1(
b110 )
b110 4
b1 ,
b1 6
#16
0(
b111 )
b111 4
b1 -
b1 7
#17
b1000010000000000 =
b1000010000000000 >
b1 @
1(
b1000 )
b1000 4
b0 .
b0 8
#18
0(
#19
b1 @
1(
#20
0(
#21
b1 @
1(
#22
0(
#23
b1 @
1(
#24
0(
#25
b1 @
1(
#26
0(
#27
b1 @
1(
#28
0(
#29
b1 @
1(
#30
0(
#31
b1 @
1(
#32
0(
#33
b1 @
1(
#34
0(
#35
b1 @
1(
#36
0(
#37
1(
b1 )
b1 4
#38
0(
b10 )
b10 4
#39
1(
b11 )
b11 4
#40
0(
b100 )
b100 4
#41
1(
b101 )
b101 4
#42
0(
b110 )
b110 4
b0 ,
b0 6
#43
1(
b111 )
b111 4
#44
0(
b1000 )
b1000 4
b1 .
b1 8
#45
1!
0"
b1 @
1(
#46
0(
#47
1(
#48
0(
#49
1(
#50
0(
#51
1(
#52
0(
#53
1(
#54
0(
#55
1(
#56
0(
#57
1(
#58
0(
#59
1(
#60
0(
#61
1(
#62
0(
#63
1(
#64
0(
b0 )
b0 4
1#
#65
0!
1"
1(
#66
0(
#67
1(
#68
0(
#69
1(
#70
0(
#71
1(
#72
0(
#73
1(
#74
0(
0#
#75
1(
#76
0(
#77
1(
#78
0(
#79
1(
#80
0(
#81
1(
#82
0(
#83
1(
#84
0(
#85
1(
#86
0(
#87
1(
#88
0(
#89
1(
#90
0(
#91
1(
#92
0(
#93
1(
#94
0(
b1 )
b1 4
#95
1(
b10 )
b10 4
#96
0(
b11 )
b11 4
#97
1(
b100 )
b100 4
#98
0(
b101 )
b101 4
#99
1(
b110 )
b110 4
#100
0(
b111 )
b111 4
#101
1!
0"
b1 @
1(
b1000 )
b1000 4
#102
0(
#103
1(
#104
0(
#105
1(
#106
0(
#107
1(
#108
0(
#109
1(
#110
0(
#111
1(
#112
0(
#113
1(
#114
0(
#115
1(
#116
0(
#117
1(
#118
0(
#119
1(
#120
0(
#121
0!
1(
b0 )
b0 4
1$
#122
0(
b1 )
b1 4
#123
1(
b10 )
b10 4
#124
0(
b11 )
b11 4
#125
1!
1(
b100 )
b100 4
#126
0(
#127
1!
1(
#128
0(
#129
1!
1(
#130
0(
#131
1!
1(
#132
0(
#133
1!
1(
#134
0(
#135
1!
1(
#136
0(
#137
1!
1(
#138
0(
#139
1!
1(
#140
0(
#141
1!
1(
#142
0(
#143
1!
1(
#144
0(
#145
0!
1"
1(
1#
0$
#146
0(
#147
1(
#148
0(
#149
1(
#150
0(
#151
1(
#152
0(
#153
1(
#154
0(
#155
1(
0#
#156
0(
#157
1(
#158
0(
#159
1(
#160
0(
#161
1(
#162
0(
#163
1(
#164
0(
#165
1(
#166
0(
#167
1(
#168
0(
#169
1(
#170
0(
#171
1(
#172
0(
#173
1(
#174
0(
#175
1(
b1 )
b1 4
#176
0(
b10 )
b10 4
#177
1(
b11 )
b11 4
#178
0(
b100 )
b100 4
#179
1(
b101 )
b101 4
#180
0(
b110 )
b110 4
#181
1(
b111 )
b111 4
#182
0(
b1000 )
b1000 4
#183
b0 =
b1 @
1(
#184
0(
#185
b1 @
1(
#186
0(
#187
b1 @
1(
#188
0(
#189
b1 @
1(
#190
0(
#191
b1 @
1(
#192
0(
#193
b1 @
1(
#194
0(
#195
b1 @
1(
#196
0(
#197
b1 @
1(
#198
0(
#199
b1 @
1(
#200
0(
#201
b1 @
1(
#202
0(
b1 )
b1 4
#203
1(
b10 )
b10 4
#204
0(
b11 )
b11 4
#205
1(
b100 )
b100 4
#206
0(
b101 )
b101 4
b10 +
b10 5
#207
1(
b110 )
b110 4
#208
0(
b111 )
b111 4
#209
b1 @
1(
b1000 )
b1000 4
#210
0(
#211
b1 @
1(
#212
0(
#213
b1 @
1(
#214
0(
#215
b1 @
1(
#216
0(
#217
b1 @
1(
#218
0(
#219
b1 @
1(
#220
0(
#221
b1 @
1(
#222
0(
#223
b1 @
1(
#224
0(
#225
b1 @
1(
#226
0(
#227
b1 @
1(
#228
0(
#229
b1 @
1(
#230
0(
#231
b1 @
1(
#232
0(
#233
b1 @
1(
#234
0(
#235
b1 @
1(
#236
0(
#237
b1 @
1(
#238
0(
#239
b1 @
1(
#240
0(
#241
b1 @
1(
#242
0(
#243
b1 @
1(
#244
0(
#245
b1 @
1(
#246
0(
#247
b1 @
1(
#248
0(
#249
b1 @
1(
